Project 1
…
#Mutate, Group_By 
partydrivers %>% group_by(pvi_party) %>% mutate(mean2 = cummean(perc_alcohol)) %>% arrange(desc(mean2))

## # A tibble: 50 x 11
## # Groups:   pvi_party [2]
##    state pvi_party pvi_amount num_drivers perc_speeding perc_alcohol
##    <fct> <fct>          <int>       <dbl>         <int>        <int>
##  1 Illi… D                 13        12.8            36           34
##  2 Mass… D                 29         8.2            23           35
##  3 Hawa… D                 36        17.5            54           41
##  4 Maine D                  5        15.1            38           30
##  5 Mary… D                 23        12.5            34           32
##  6 Mich… D                  1        14.1            24           28
##  7 Minn… D                  2         9.6            23           29
##  8 New … D                 13        11.2            16           28
##  9 New … D                  7        18.4            19           27
## 10 Rhod… D                 26        11.1            34           38
## # … with 40 more rows, and 5 more variables: perc_not_distracted <int>,
## #   perc_no_previous <int>, insurance_premiums <dbl>, losses <dbl>, mean2 <dbl>
…
