ProjectTwo
…
samp_distn %>% t %>% as.data.frame %>% pivot_longer(1:34) %>% group_by(name) %>%
 summarize(lower=quantile(value,.025), upper=quantile(value,.975))

## `summarise()` ungrouping output (override with `.groups` argument)

## # A tibble: 34 x 3
##    name                         lower  upper
##    <chr>                        <dbl>  <dbl>
##  1 (Intercept)                  89.5  147.  
##  2 Critic_Score_c                4.53  10.6 
##  3 PlatformDC                 -272.   -50.7 
##  4 PlatformDC:Critic_Score_c    -6.55   8.88
##  5 PlatformDS                 -112.   -52.7 
##  6 PlatformDS:Critic_Score_c    -9.03  -2.85
##  7 PlatformGBA                -124.   -65.6 
##  8 PlatformGBA:Critic_Score_c   -9.42  -3.26
##  9 PlatformGC                 -114.   -53.4 
## 10 PlatformGC:Critic_Score_c    -8.66  -2.10
## # … with 24 more rows
…
